seed: 12763	Algoritm params: {xrate = 0.5, mrate = 1, population = 128}
	Best chrom: (fitness: 6)	1 0 1 1 0 1 1 1 
seed: 12764	Algoritm params: {xrate = 0.5, mrate = 1, population = 128}
	Best chrom: (fitness: 6)	1 0 1 1 0 1 1 1 
seed: 12765	Algoritm params: {xrate = 0.5, mrate = 1, population = 128}
	Best chrom: (fitness: 6)	1 0 1 1 0 1 1 1 
seed: 12766	Algoritm params: {xrate = 0.5, mrate = 1, population = 128}
	Best chrom: (fitness: 6)	1 0 1 1 0 1 1 1 
seed: 12767	Algoritm params: {xrate = 0.5, mrate = 1, population = 128}
	Best chrom: (fitness: 6)	1 0 1 1 0 1 1 1 
seed: 12768	Algoritm params: {xrate = 0.5, mrate = 1, population = 128}
	Best chrom: (fitness: 6)	1 0 1 1 0 1 1 1 
seed: 12769	Algoritm params: {xrate = 0.5, mrate = 1, population = 128}
	Best chrom: (fitness: 6)	1 0 1 1 0 1 1 1 
seed: 12770	Algoritm params: {xrate = 0.5, mrate = 1, population = 128}
	Best chrom: (fitness: 6)	1 0 1 1 0 1 1 1 
seed: 12771	Algoritm params: {xrate = 0.5, mrate = 1, population = 128}
	Best chrom: (fitness: 6)	1 0 1 1 0 1 1 1 
seed: 12772	Algoritm params: {xrate = 0.5, mrate = 1, population = 128}
	Best chrom: (fitness: 6)	1 0 1 1 0 1 1 1 
seed: 12773	Algoritm params: {xrate = 0.5, mrate = 1, population = 128}
	Best chrom: (fitness: 6)	1 0 1 1 0 1 1 1 
seed: 12774	Algoritm params: {xrate = 0.5, mrate = 1, population = 128}
	Best chrom: (fitness: 6)	1 0 1 1 0 1 1 1 
seed: 12775	Algoritm params: {xrate = 0.5, mrate = 1, population = 128}
	Best chrom: (fitness: 6)	1 0 1 1 0 1 1 1 
seed: 12776	Algoritm params: {xrate = 0.5, mrate = 1, population = 128}
	Best chrom: (fitness: 6)	1 0 1 1 0 1 1 1 
seed: 12777	Algoritm params: {xrate = 0.5, mrate = 1, population = 128}
	Best chrom: (fitness: 6)	1 0 1 1 0 1 1 1 
seed: 12778	Algoritm params: {xrate = 0.5, mrate = 1, population = 128}
	Best chrom: (fitness: 6)	1 0 1 1 0 1 1 1 
seed: 12779	Algoritm params: {xrate = 0.5, mrate = 1, population = 128}
	Best chrom: (fitness: 6)	1 0 1 1 0 1 1 1 
seed: 12780	Algoritm params: {xrate = 0.5, mrate = 1, population = 128}
	Best chrom: (fitness: 6)	1 0 1 1 0 1 1 1 
seed: 12781	Algoritm params: {xrate = 0.5, mrate = 1, population = 128}
	Best chrom: (fitness: 6)	1 0 1 1 0 1 1 1 
seed: 12782	Algoritm params: {xrate = 0.5, mrate = 1, population = 128}
	Best chrom: (fitness: 6)	1 0 1 1 0 1 1 1 
seed: 12783	Algoritm params: {xrate = 0.5, mrate = 1, population = 128}
	Best chrom: (fitness: 6)	1 0 1 1 0 1 1 1 
seed: 12784	Algoritm params: {xrate = 0.5, mrate = 1, population = 128}
	Best chrom: (fitness: 6)	1 0 1 1 0 1 1 1 
seed: 12785	Algoritm params: {xrate = 0.5, mrate = 1, population = 128}
	Best chrom: (fitness: 6)	1 0 1 1 0 1 1 1 
seed: 12786	Algoritm params: {xrate = 0.5, mrate = 1, population = 128}
	Best chrom: (fitness: 6)	1 0 1 1 0 1 1 1 
seed: 12787	Algoritm params: {xrate = 0.5, mrate = 1, population = 128}
	Best chrom: (fitness: 6)	1 0 1 1 0 1 1 1 
seed: 12788	Algoritm params: {xrate = 0.5, mrate = 1, population = 128}
	Best chrom: (fitness: 6)	1 0 1 1 0 1 1 1 
seed: 12789	Algoritm params: {xrate = 0.5, mrate = 1, population = 128}
	Best chrom: (fitness: 6)	1 0 1 1 0 1 1 1 
seed: 12790	Algoritm params: {xrate = 0.5, mrate = 1, population = 128}
	Best chrom: (fitness: 6)	1 0 1 1 0 1 1 1 
seed: 12791	Algoritm params: {xrate = 0.5, mrate = 1, population = 128}
	Best chrom: (fitness: 6)	1 0 1 1 0 1 1 1 
seed: 12792	Algoritm params: {xrate = 0.5, mrate = 1, population = 128}
	Best chrom: (fitness: 6)	1 0 1 1 0 1 1 1 
seed: 12793	Algoritm params: {xrate = 0.5, mrate = 1, population = 128}
	Best chrom: (fitness: 6)	1 0 1 1 0 1 1 1 
seed: 12794	Algoritm params: {xrate = 0.5, mrate = 1, population = 128}
	Best chrom: (fitness: 6)	1 0 1 1 0 1 1 1 
seed: 12795	Algoritm params: {xrate = 0.5, mrate = 1, population = 128}
	Best chrom: (fitness: 6)	1 0 1 1 0 1 1 1 
seed: 12796	Algoritm params: {xrate = 0.5, mrate = 1, population = 128}
	Best chrom: (fitness: 6)	1 0 1 1 0 1 1 1 
seed: 12797	Algoritm params: {xrate = 0.5, mrate = 1, population = 128}
	Best chrom: (fitness: 6)	1 0 1 1 0 1 1 1 
seed: 12798	Algoritm params: {xrate = 0.5, mrate = 1, population = 128}
	Best chrom: (fitness: 6)	1 0 1 1 0 1 1 1 
seed: 12799	Algoritm params: {xrate = 0.5, mrate = 1, population = 128}
	Best chrom: (fitness: 6)	1 0 1 1 0 1 1 1 
seed: 12800	Algoritm params: {xrate = 0.5, mrate = 1, population = 128}
	Best chrom: (fitness: 6)	1 0 1 1 0 1 1 1 
seed: 12801	Algoritm params: {xrate = 0.5, mrate = 1, population = 128}
	Best chrom: (fitness: 6)	1 0 1 1 0 1 1 1 
seed: 12802	Algoritm params: {xrate = 0.5, mrate = 1, population = 128}
	Best chrom: (fitness: 6)	1 0 1 1 0 1 1 1 
seed: 12803	Algoritm params: {xrate = 0.5, mrate = 1, population = 128}
	Best chrom: (fitness: 6)	1 0 1 1 0 1 1 1 
seed: 12804	Algoritm params: {xrate = 0.5, mrate = 1, population = 128}
	Best chrom: (fitness: 6)	1 0 1 1 0 1 1 1 
seed: 12805	Algoritm params: {xrate = 0.5, mrate = 1, population = 128}
	Best chrom: (fitness: 6)	1 0 1 1 0 1 1 1 
seed: 12806	Algoritm params: {xrate = 0.5, mrate = 1, population = 128}
	Best chrom: (fitness: 6)	1 0 1 1 0 1 1 1 
seed: 12807	Algoritm params: {xrate = 0.5, mrate = 1, population = 128}
	Best chrom: (fitness: 6)	1 0 1 1 0 1 1 1 
seed: 12808	Algoritm params: {xrate = 0.5, mrate = 1, population = 128}
	Best chrom: (fitness: 6)	1 0 1 1 0 1 1 1 
seed: 12809	Algoritm params: {xrate = 0.5, mrate = 1, population = 128}
	Best chrom: (fitness: 6)	1 0 1 1 0 1 1 1 
seed: 12810	Algoritm params: {xrate = 0.5, mrate = 1, population = 128}
	Best chrom: (fitness: 6)	1 0 1 1 0 1 1 1 
seed: 12811	Algoritm params: {xrate = 0.5, mrate = 1, population = 128}
	Best chrom: (fitness: 6)	1 0 1 1 0 1 1 1 
seed: 12812	Algoritm params: {xrate = 0.5, mrate = 1, population = 128}
	Best chrom: (fitness: 6)	1 0 1 1 0 1 1 1 
seed: 12813	Algoritm params: {xrate = 0.5, mrate = 1, population = 128}
	Best chrom: (fitness: 6)	1 0 1 1 0 1 1 1 
seed: 12814	Algoritm params: {xrate = 0.5, mrate = 1, population = 128}
	Best chrom: (fitness: 6)	1 0 1 1 0 1 1 1 
seed: 12815	Algoritm params: {xrate = 0.5, mrate = 1, population = 128}
	Best chrom: (fitness: 6)	1 0 1 1 0 1 1 1 
seed: 12816	Algoritm params: {xrate = 0.5, mrate = 1, population = 128}
	Best chrom: (fitness: 6)	1 0 1 1 0 1 1 1 
seed: 12817	Algoritm params: {xrate = 0.5, mrate = 1, population = 128}
	Best chrom: (fitness: 6)	1 0 1 1 0 1 1 1 
seed: 12818	Algoritm params: {xrate = 0.5, mrate = 1, population = 128}
	Best chrom: (fitness: 6)	1 0 1 1 0 1 1 1 
seed: 12819	Algoritm params: {xrate = 0.5, mrate = 1, population = 128}
	Best chrom: (fitness: 6)	1 0 1 1 0 1 1 1 
seed: 12820	Algoritm params: {xrate = 0.5, mrate = 1, population = 128}
	Best chrom: (fitness: 6)	1 0 1 1 0 1 1 1 
seed: 12821	Algoritm params: {xrate = 0.5, mrate = 1, population = 128}
	Best chrom: (fitness: 6)	1 0 1 1 0 1 1 1 
seed: 12822	Algoritm params: {xrate = 0.5, mrate = 1, population = 128}
	Best chrom: (fitness: 6)	1 0 1 1 0 1 1 1 
seed: 12823	Algoritm params: {xrate = 0.5, mrate = 1, population = 128}
	Best chrom: (fitness: 6)	1 0 1 1 0 1 1 1 
seed: 12824	Algoritm params: {xrate = 0.5, mrate = 1, population = 128}
	Best chrom: (fitness: 6)	1 0 1 1 0 1 1 1 
seed: 12825	Algoritm params: {xrate = 0.5, mrate = 1, population = 128}
	Best chrom: (fitness: 6)	1 0 1 1 0 1 1 1 
seed: 12826	Algoritm params: {xrate = 0.5, mrate = 1, population = 128}
	Best chrom: (fitness: 6)	1 0 1 1 0 1 1 1 
seed: 12827	Algoritm params: {xrate = 0.5, mrate = 1, population = 128}
	Best chrom: (fitness: 6)	1 0 1 1 0 1 1 1 
seed: 12828	Algoritm params: {xrate = 0.5, mrate = 1, population = 128}
	Best chrom: (fitness: 6)	1 0 1 1 0 1 1 1 
seed: 12829	Algoritm params: {xrate = 0.5, mrate = 1, population = 128}
	Best chrom: (fitness: 6)	1 0 1 1 0 1 1 1 
seed: 12830	Algoritm params: {xrate = 0.5, mrate = 1, population = 128}
	Best chrom: (fitness: 6)	1 0 1 1 0 1 1 1 
seed: 12831	Algoritm params: {xrate = 0.5, mrate = 1, population = 128}
	Best chrom: (fitness: 6)	1 0 1 1 0 1 1 1 
seed: 12832	Algoritm params: {xrate = 0.5, mrate = 1, population = 128}
	Best chrom: (fitness: 6)	1 0 1 1 0 1 1 1 
seed: 12833	Algoritm params: {xrate = 0.5, mrate = 1, population = 128}
	Best chrom: (fitness: 6)	1 0 1 1 0 1 1 1 
seed: 12834	Algoritm params: {xrate = 0.5, mrate = 1, population = 128}
	Best chrom: (fitness: 6)	1 0 1 1 0 1 1 1 
seed: 12835	Algoritm params: {xrate = 0.5, mrate = 1, population = 128}
	Best chrom: (fitness: 6)	1 0 1 1 0 1 1 1 
seed: 12836	Algoritm params: {xrate = 0.5, mrate = 1, population = 128}
	Best chrom: (fitness: 6)	1 0 1 1 0 1 1 1 
seed: 12837	Algoritm params: {xrate = 0.5, mrate = 1, population = 128}
	Best chrom: (fitness: 6)	1 0 1 1 0 1 1 1 
seed: 12838	Algoritm params: {xrate = 0.5, mrate = 1, population = 128}
	Best chrom: (fitness: 6)	1 0 1 1 0 1 1 1 
seed: 12839	Algoritm params: {xrate = 0.5, mrate = 1, population = 128}
	Best chrom: (fitness: 6)	1 0 1 1 0 1 1 1 
seed: 12840	Algoritm params: {xrate = 0.5, mrate = 1, population = 128}
	Best chrom: (fitness: 6)	1 0 1 1 0 1 1 1 
seed: 12841	Algoritm params: {xrate = 0.5, mrate = 1, population = 128}
	Best chrom: (fitness: 6)	1 0 1 1 0 1 1 1 
seed: 12842	Algoritm params: {xrate = 0.5, mrate = 1, population = 128}
	Best chrom: (fitness: 6)	1 0 1 1 0 1 1 1 
seed: 12843	Algoritm params: {xrate = 0.5, mrate = 1, population = 128}
	Best chrom: (fitness: 6)	1 0 1 1 0 1 1 1 
seed: 12844	Algoritm params: {xrate = 0.5, mrate = 1, population = 128}
	Best chrom: (fitness: 6)	1 0 1 1 0 1 1 1 
seed: 12845	Algoritm params: {xrate = 0.5, mrate = 1, population = 128}
	Best chrom: (fitness: 6)	1 0 1 1 0 1 1 1 
seed: 12846	Algoritm params: {xrate = 0.5, mrate = 1, population = 128}
	Best chrom: (fitness: 6)	1 0 1 1 0 1 1 1 
seed: 12847	Algoritm params: {xrate = 0.5, mrate = 1, population = 128}
	Best chrom: (fitness: 6)	1 0 1 1 0 1 1 1 
seed: 12848	Algoritm params: {xrate = 0.5, mrate = 1, population = 128}
	Best chrom: (fitness: 6)	1 0 1 1 0 1 1 1 
seed: 12849	Algoritm params: {xrate = 0.5, mrate = 1, population = 128}
	Best chrom: (fitness: 6)	1 0 1 1 0 1 1 1 
seed: 12850	Algoritm params: {xrate = 0.5, mrate = 1, population = 128}
	Best chrom: (fitness: 6)	1 0 1 1 0 1 1 1 
seed: 12851	Algoritm params: {xrate = 0.5, mrate = 1, population = 128}
	Best chrom: (fitness: 6)	1 0 1 1 0 1 1 1 
seed: 12852	Algoritm params: {xrate = 0.5, mrate = 1, population = 128}
	Best chrom: (fitness: 6)	1 0 1 1 0 1 1 1 
seed: 12853	Algoritm params: {xrate = 0.5, mrate = 1, population = 128}
	Best chrom: (fitness: 6)	1 0 1 1 0 1 1 1 
seed: 12854	Algoritm params: {xrate = 0.5, mrate = 1, population = 128}
	Best chrom: (fitness: 6)	1 0 1 1 0 1 1 1 
seed: 12855	Algoritm params: {xrate = 0.5, mrate = 1, population = 128}
	Best chrom: (fitness: 6)	1 0 1 1 0 1 1 1 
seed: 12856	Algoritm params: {xrate = 0.5, mrate = 1, population = 128}
	Best chrom: (fitness: 6)	1 0 1 1 0 1 1 1 
seed: 12857	Algoritm params: {xrate = 0.5, mrate = 1, population = 128}
	Best chrom: (fitness: 6)	1 0 1 1 0 1 1 1 
seed: 12858	Algoritm params: {xrate = 0.5, mrate = 1, population = 128}
	Best chrom: (fitness: 6)	1 0 1 1 0 1 1 1 
seed: 12859	Algoritm params: {xrate = 0.5, mrate = 1, population = 128}
	Best chrom: (fitness: 6)	1 0 1 1 0 1 1 1 
seed: 12860	Algoritm params: {xrate = 0.5, mrate = 1, population = 128}
	Best chrom: (fitness: 6)	1 0 1 1 0 1 1 1 
seed: 12861	Algoritm params: {xrate = 0.5, mrate = 1, population = 128}
	Best chrom: (fitness: 6)	1 0 1 1 0 1 1 1 
seed: 12862	Algoritm params: {xrate = 0.5, mrate = 1, population = 128}
	Best chrom: (fitness: 6)	1 0 1 1 0 1 1 1 
